\relax 
\catcode `"\active 
\catcode `<\active 
\catcode `>\active 
\@nameuse{es@quoting}
\babel@aux{spanish}{}
\@writefile{toc}{\contentsline {section}{\numberline {1}Objetivo}{1}}
\@writefile{toc}{\contentsline {section}{\numberline {2}Desarrollo}{1}}
\@writefile{toc}{\contentsline {subsection}{\numberline {2.1}Infraestrucutura}{1}}
\@writefile{toc}{\contentsline {subsection}{\numberline {2.2}Par\IeC {\'a}metros de Red}{1}}
\@writefile{lof}{\contentsline {figure}{\numberline {1}{\ignorespaces Configuraciones extras para el servidor DNS de la red \texttt  {fciencias}}}{1}}
\newlabel{fig:dns_ciencias_conf}{{1}{1}}
\@writefile{lof}{\contentsline {figure}{\numberline {2}{\ignorespaces Configuraciones para el servidor DNS de la red \texttt  {fisica}}}{2}}
\newlabel{fig:dns_fisica_conf}{{2}{2}}
\@writefile{lof}{\contentsline {figure}{\numberline {3}{\ignorespaces Configuraciones para el servidor web de la red \texttt  {fisica}}}{2}}
\newlabel{fig:web_fisica_conf}{{3}{2}}
\@writefile{lof}{\contentsline {figure}{\numberline {4}{\ignorespaces Configuraciones para una computadora en la red \texttt  {fisica}}}{2}}
\newlabel{fig:pc_fisica_conf}{{4}{2}}
\@writefile{lof}{\contentsline {figure}{\numberline {5}{\ignorespaces Configuraciones para el servidor DNS de la red \texttt  {dgtic}}}{3}}
\newlabel{fig:dns_unam_conf}{{5}{3}}
\@writefile{lof}{\contentsline {figure}{\numberline {6}{\ignorespaces Configuraciones para el servidor web de la \texttt  {unam.mx}}}{3}}
\newlabel{fig:web_unam_conf}{{6}{3}}
\@writefile{lof}{\contentsline {figure}{\numberline {7}{\ignorespaces Configuraciones para el servidor web de \texttt  {dgapa.unam.mx}}}{3}}
\newlabel{fig:web_dgapa_conf}{{7}{3}}
\@writefile{lof}{\contentsline {figure}{\numberline {8}{\ignorespaces Configuraciones para los equipos de la red \texttt  {dgtic}}}{4}}
\newlabel{fig:pc_dgtic_conf}{{8}{4}}
\@writefile{toc}{\contentsline {subsection}{\numberline {2.3}Sitios Web}{4}}
\@writefile{lof}{\contentsline {figure}{\numberline {9}{\ignorespaces Modificaciones a \texttt  {fisica.unam.mx}}}{4}}
\newlabel{fig:web_dgapa_conf}{{9}{4}}
\@writefile{lof}{\contentsline {figure}{\numberline {10}{\ignorespaces Modificaciones a \texttt  {unam.mx}}}{5}}
\newlabel{fig:web_dgapa_conf}{{10}{5}}
\@writefile{lof}{\contentsline {figure}{\numberline {11}{\ignorespaces Modificaciones a \texttt  {dgapa.unam.mx}}}{5}}
\newlabel{fig:web_dgapa_conf}{{11}{5}}
\@writefile{toc}{\contentsline {subsection}{\numberline {2.4}Registros DNS}{5}}
\@writefile{lof}{\contentsline {figure}{\numberline {12}{\ignorespaces Modificaciones a los registros DNS de la facultad}}{6}}
\newlabel{fig:dns_reg_fciencias}{{12}{6}}
\@writefile{lof}{\contentsline {figure}{\numberline {13}{\ignorespaces Creaci\IeC {\'o}n de los registros de DNS del Instituto de F\IeC {\'\i }sica}}{6}}
\newlabel{fig:dns_reg_if}{{13}{6}}
\@writefile{lof}{\contentsline {figure}{\numberline {14}{\ignorespaces Creaci\IeC {\'o}n de los registros de DNS de \texttt  {dgtic}}}{7}}
\newlabel{fig:dns_reg_dgtic}{{14}{7}}
\@writefile{toc}{\contentsline {subsection}{\numberline {2.5}Routers}{7}}
\@writefile{toc}{\contentsline {subsection}{\numberline {2.6}Rutas est\IeC {\'a}ticas}{7}}
\@writefile{toc}{\contentsline {subsection}{\numberline {2.7}Verificar configuraci\IeC {\'o}n}{7}}
\@writefile{lof}{\contentsline {figure}{\numberline {15}{\ignorespaces Configuraciones de ruteo del router de \texttt  {fciencias}}}{8}}
\newlabel{fig:fciencias_ip_show}{{15}{8}}
\@writefile{lof}{\contentsline {figure}{\numberline {16}{\ignorespaces Configuraciones de ruteo del router de \texttt  {fisica}}}{8}}
\newlabel{fig:fisica_ip_show}{{16}{8}}
\@writefile{lof}{\contentsline {figure}{\numberline {17}{\ignorespaces Configuraciones de ruteo del router de \texttt  {dgtic}}}{9}}
\newlabel{fig:dgtic_ip_show}{{17}{9}}
\@writefile{toc}{\contentsline {section}{\numberline {3}Cuestionario}{9}}
